Are people from different countries happy for different things? Why exactly are they happy for?
…
At last, we use LDA topic model to explore the data, for this project, we want to find topics grouped by countries, we set 3 topics, the topics and top terms are:

word_counts <- bag_of_words %>% filter(word %in% d$word) %>%
  anti_join(stop_words) %>%
  count(country, word, sort = TRUE) %>%
  ungroup()

dtm <- word_counts %>%
  cast_dtm(country, word, n)

lda <- LDA(dtm, k = 3, control = list(seed = 2018))
topics <- tidy(lda, matrix = "beta")
topics

## # A tibble: 4,593 x 3
##    topic term       beta
##    <int> <chr>     <dbl>
##  1     1 friend  0.0255 
##  2     2 friend  0.00255
##  3     3 friend  0.0365 
##  4     1 watched 0.00333
##  5     2 watched 0.00775
##  6     3 watched 0.0124 
##  7     1 played  0.00411
##  8     2 played  0.00647
##  9     3 played  0.0120 
## 10     1 finally 0.00342
## # ... with 4,583 more rows
…
